…
### Example 1: PK metrics at Day 1 and Day 7

Assume some results were simulated with Campsis (see `campsis`
dataframe) :

``` r
campsis
```

    ## # A tibble: 5,000 × 18
    ##       ID  TIME   ARM    KA    CL    V2    V3     Q    S2     F    CP OBS_CP
    ##    <int> <dbl> <dbl> <dbl> <dbl> <dbl> <dbl> <dbl> <dbl> <dbl> <dbl>  <dbl>
    ##  1     1     0     0 0.842  5.89  94.8  21.3  3.62  94.8  0     0      0   
    ##  2     1     1     0 0.842  5.89  94.8  21.3  3.62  94.8  5.68  5.68   7.98
    ##  3     1     2     0 0.842  5.89  94.8  21.3  3.62  94.8  7.62  7.62   7.32
    ##  4     1     4     0 0.842  5.89  94.8  21.3  3.62  94.8  7.81  7.81   7.25
    ##  5     1     6     0 0.842  5.89  94.8  21.3  3.62  94.8  6.93  6.93   7.07
    ##  6     1     8     0 0.842  5.89  94.8  21.3  3.62  94.8  6.05  6.05   6.18
    ##  7     1    12     0 0.842  5.89  94.8  21.3  3.62  94.8  4.72  4.72   5.90
    ##  8     1    16     0 0.842  5.89  94.8  21.3  3.62  94.8  3.78  3.78   3.45
    ##  9     1    24     0 0.842  5.89  94.8  21.3  3.62  94.8  2.52  2.52   3.09
    ## 10     1    48     0 0.842  5.89  94.8  21.3  3.62  94.8  3.33  3.33   3.67
    ## # ℹ 4,990 more rows
    ## # ℹ 6 more variables: Y <dbl>, A_DEPOT <dbl>, A_CENTRAL <dbl>,
    ## #   A_PERIPHERAL <dbl>, A_OUTPUT <dbl>, BW <dbl>
…
``` r
table <- NCAMetricsTable() %>%
  add(c(ncaD1, ncaD7))
```

This table can be exported:

1.  To a dataframe using the `export` function:

``` r
table %>% export(dest="dataframe")
```

    ## # A tibble: 24 × 4
    ##    metric  stat    value day  
    ##    <chr>   <chr>   <dbl> <chr>
    ##  1 AUC     median 134.   Day 1
    ##  2 AUC     p5     104.   Day 1
    ##  3 AUC     p95    170.   Day 1
    ##  4 Cmax    median  10.1  Day 1
    ##  5 Cmax    p5       7.79 Day 1
    ##  6 Cmax    p95     14.1  Day 1
    ##  7 tmax    median   2    Day 1
    ##  8 tmax    p5       1    Day 1
    ##  9 tmax    p95      6    Day 1
    ## 10 Ctrough median   2.82 Day 1
    ## # ℹ 14 more rows
…
Please note the individual metrics can also be exported to a dataframe
using the `export` function as follows:

``` r
table %>% export(dest="dataframe", type="individual_wide")
```

    ## # A tibble: 400 × 6
    ##       id day     AUC  Cmax  tmax Ctrough
    ##    <int> <chr> <dbl> <dbl> <dbl>   <dbl>
    ##  1     1 Day 1 123.   7.98     1    3.09
    ##  2     2 Day 1  80.5  5.69     2    1.75
    ##  3     3 Day 1 111.  10.4      1    1.71
    ##  4     4 Day 1 126.   8.90     4    3.41
    ##  5     5 Day 1 149.  10.0      4    3.46
    ##  6     6 Day 1 157.   9.80     6    4.17
    ##  7     7 Day 1 143.   9.58     4    3.65
    ##  8     8 Day 1 154.   9.66     8    4.02
    ##  9     9 Day 1 100.   7.50     4    1.64
    ## 10    10 Day 1 136.  10.1      4    2.90
    ## # ℹ 390 more rows
…
